{
  "name": "",
  "css_prefix_text": "icon-",
  "css_use_suffix": false,
  "hinting": true,
  "units_per_em": 1000,
  "ascent": 850,
  "glyphs": [
    {
      "uid": "e70df9acbabaebfbbf9c1dbc3e52ab13",
      "css": "twitch",
      "code": 59392,
      "src": "fontawesome"
    },
    {
      "uid": "8e04c98c8f5ca0a035776e3001ad2638",
      "css": "facebook",
      "code": 59393,
      "src": "fontawesome"
    },
    {
      "uid": "a9862b9d5197886c1ad693ecd7120b31",
      "css": "youtube",
      "code": 59395,
      "src": "fontawesome"
    },
    {
      "uid": "ff44f01f60948555026580eedf1e39bb",
      "css": "html5",
      "code": 59396,
      "src": "fontawesome"
    },
    {
      "uid": "01c946ce2ed5500e0a918f2b3a7d1923",
      "css": "css3",
      "code": 59397,
      "src": "fontawesome"
    },
    {
      "uid": "63208f7386b9384ba1291832de6ceee7",
      "css": "ie",
      "code": 59398,
      "src": "zocial"
    },
    {
      "uid": "9c2b737b16ae2c8d66b7bfd29ba5ecd8",
      "css": "chrome",
      "code": 59399,
      "src": "fontelico"
    },
    {
      "uid": "62c089cb34e74b3a1200bc7f5314eb4e",
      "css": "firefox",
      "code": 59400,
      "src": "fontelico"
    },
    {
      "uid": "45861dd1e5ce4fde338bcccf01eeb808",
      "css": "opera",
      "code": 59401,
      "src": "fontelico"
    },
    {
      "uid": "2a46f1d1c9bd036e17a74e46613c1636",
      "css": "ie-1",
      "code": 59402,
      "src": "fontelico"
    },
    {
      "uid": "0f6a2573a7b6df911ed199bb63717e27",
      "css": "github-circled",
      "code": 59394,
      "src": "fontawesome"
    }
  ]
}